Behavior and practices of managing sanitation facilties in two low-income areas of Abidjan, Cote d’Ivoire
…
Introduction

In Abidjan (Cote d’Ivoire), the situation of sanitation was exacerbated by the sociopolitical and military crisis of 2002-2011 (Ouattara et al. 2017). This study was carried out in two low-income parts of Abidjan in order to understand the behavior and practices of the population in terms of managing sanitation facilities, as well as to assess the diseases they face.

Methods

The data were collected from household surveys in two low_income areas of Abidjan. Indeed, the surveys included 101 households in Abobo and 106 households from Yopougon. The survey was focusing on practices related to the management of sanitation facilities (latrines and tanks).

Import

library(readxl)

read_excel(here::here("data/raw/Survey_base.xlsx"))

# A tibble: 207 × 28
   date       area_name sex    age   education   living_time housing_type status
   <chr>      <chr>     <chr>  <chr> <chr>       <chr>       <chr>        <chr> 
 1 2018-17-04 Yopougon  male   18-35 primary     2013        individual   renter
 2 2018-17-04 Yopougon  female 36-49 no          1981        common cour… owner 
 3 2018-17-04 Yopougon  female 18-35 high school 2007        common cour… renter
 4 2018-17-04 Yopougon  male   18-35 no          2016        common cour… renter
 5 2018-17-04 Yopougon  female 18-35 no          2018        common cour… renter
 6 2018-17-04 Yopougon  male   18-35 primary     2018        common cour… renter
 7 2018-17-04 Yopougon  female 18-35 no          2015        common cour… renter
 8 2018-17-04 Yopougon  male   18-35 no          2000        common cour… renter
 9 2018-17-04 Yopougon  male   36-49 graduate    NA          common cour… renter
10 2018-17-04 Yopougon  male   18-35 graduate    2014        common cour… renter
# ℹ 197 more rows
# ℹ 20 more variables: latrine_presence <chr>, location <chr>,
#   latrine_type <chr>, using_latrines <chr>, users <chr>,
#   impacts_of_sharing <chr>, latrine_cleaning <chr>, cleaning_freqce_wk <chr>,
#   tank_presence <chr>, tank_location <chr>, latrines_nb <chr>,
#   tank_operation <chr>, emptying_frqce_yr <chr>, emptying_mode <chr>,
#   emptying_price <chr>, household_wastewater <chr>, garbage_cont <chr>, …

library(tidyverse)

Import data

read_excel(here::here("data/raw/Survey_base.xlsx"))

# A tibble: 207 × 28
   date       area_name sex    age   education   living_time housing_type status
   <chr>      <chr>     <chr>  <chr> <chr>       <chr>       <chr>        <chr> 
 1 2018-17-04 Yopougon  male   18-35 primary     2013        individual   renter
 2 2018-17-04 Yopougon  female 36-49 no          1981        common cour… owner 
 3 2018-17-04 Yopougon  female 18-35 high school 2007        common cour… renter
 4 2018-17-04 Yopougon  male   18-35 no          2016        common cour… renter
 5 2018-17-04 Yopougon  female 18-35 no          2018        common cour… renter
 6 2018-17-04 Yopougon  male   18-35 primary     2018        common cour… renter
 7 2018-17-04 Yopougon  female 18-35 no          2015        common cour… renter
 8 2018-17-04 Yopougon  male   18-35 no          2000        common cour… renter
 9 2018-17-04 Yopougon  male   36-49 graduate    NA          common cour… renter
10 2018-17-04 Yopougon  male   18-35 graduate    2014        common cour… renter
# ℹ 197 more rows
# ℹ 20 more variables: latrine_presence <chr>, location <chr>,
#   latrine_type <chr>, using_latrines <chr>, users <chr>,
#   impacts_of_sharing <chr>, latrine_cleaning <chr>, cleaning_freqce_wk <chr>,
#   tank_presence <chr>, tank_location <chr>, latrines_nb <chr>,
#   tank_operation <chr>, emptying_frqce_yr <chr>, emptying_mode <chr>,
#   emptying_price <chr>, household_wastewater <chr>, garbage_cont <chr>, …
…
